(;
Game[1]
AddW [ba][bb][bc][cc][cd][ce][cf][dd][dg][eh][pp][qp][rp][rq][sq][qr][mp][np]
AddW [op][nq][nr][lo][ln][kn][ll][qn][rm][rl]
AddB [ad][cb][db][dc][ed][fc][de]
AddB [df][ge][cg][bg][ci][cl][jl][mm][mn][mo][on][pm][qm][qk][oq][pq][qq][or]
AddB [qs][rr][sr][ns][mr][mq][lp][ko][kq]
;)
