(;
Game[1]
AddB [pd][qc][qd][rc][oc][pb][nc][nb]
AddW [md][mc][mb][ma][ne][oe][pe][qe][rf]
AddW [rd][sc][rb][ra]
AddB [pp][po][pq][pr][on][no][np][nq][mr][lr][kr]
AddW [ir][jr]
AddW [ks][kq][lq][mq][mp][mo][mn][nm][om][pn][qo][qm][qp][qq][qr][rr][rs]
AddB [qs][cb][cc][bd][ab][dd]
AddW [ce][cd][cf][ch][dc][db][da][ed]
AddB [cr][cq][cp]
AddB [bo][ao][bm]
AddW [bq][bp][co][cn][cl]
;)
