(;
Game[1]
AddW [ep][bo][co][do][an][en][em][el][dk][dj][ci][ch][cg][bg][be]
AddB [bi][bh]
AddB [cj][ck][dl][dm][dn][cn][bm][sr][rr][qq][pq][or][nq][op][oo][nn][mo][mp]
AddB [mr][ms]
AddW [qr][rq][sq][qp][ro][pp][po][on][om][mn][mm][lo][lp][lq][lr]
AddW [ls][mq][pd][qd][rd][pc][nc][nd][of][pg][rg][mb][lb][na]
AddB [nb][ob][pb]
AddB [rc][ra][sd][se][re][qe][kc][kb][ka]
;)
