(;
Game[1]
AddW [rq][qq][pq][op][np][mq][lq][kp][jp][iq][ir][is][io]
AddB [js][jr][jq][kq]
AddB [lr][mr][nq][oq][or]
AddW [ns][rb][qb][pc][od][oe][of][og][ph][qi][rj][qk]
AddB [qg][pf][re][qd][rc][bb][db][ca][dc][fc][gc][hb][ib][ja]
AddW [cb][cc][cd]
AddW [bd][de][ee][fe][gd][hc][ic][jd][jb][kb][dp][eq][er][eo][dn][cn][bn][an]
AddB [bs][br][cr][dr][cp][co][co]
;)
