(;
Game[1]
AddB [pi][ri][ph][pg][rg][rf][rj][rk][rl][rm]
AddW [ro][rn][qp][qm][ql][qk][qj]
AddW [pj][oi][oh][og][pf][qf][oe][re][se]
AddB [bp][cp][co][cn][bm][bk][dj][di]
AddB [dh][ch]
AddW [cg][cf][cd][eg][fh][fj][dk][dl][cl][el][en][ep][dq][dr][br]
;)
