(;
Game[1]
AddB [pp][qq][rq][rp][po][pn][om][ol][pl][qk][rk][rl][qi][kr][jj]
AddW [pj][pk]
AddW [nj][ql][qm][qn][qo][qp][pm][on][oo][iq]
AddB [bc][bd][cb][ca][fb][fc][ed]
AddB [gd][dd][de][df][cg][bg][ag]
AddW [ae][be][ce][cf][cd][cc][dc][ec][ea]
AddB [rb]
AddB [sb][sa][ra][qc][pc][pb][nc][mc][mb][la]
AddW [lb][lc][jb][md][nd][od][pd]
AddW [qd][re][rc][sc]
;)
