(;
Game[1]
AddW [rq][rp][qo][rn][pp][op][nq][mq][mr]
AddB [ns][nr][oq][pq][qq][rr][ro]
AddW [br]
AddW [bp][cp][dp][do][dn][em][ek][dj][ci][ch][bh][bf]
AddB [bo][co][cm][cl][ck]
AddB [cj][bi][aj][pd][qd][od][oc][ob]
AddW [nb][nc][nd][lb][oe][pe][qe][qf][qg]
AddW [qh][ri][qj]
;)
