(;
Game[1]
AddB [qr][qq][rp][ps][or][oq][qo][no][oo][po][qn][qm][nm][om][pm][rl][rk][lp]
AddB [lq][kr][ko][kn][km][kk][ll][mk][nj][oi][qh][rg][pg]
AddW [mr][nq][pr][pq]
AddW [pp][qp][op][np][mp][mo][lo][ln][lm][mm][ml][nn][on][pn][nl][ol][pl][ql]
AddW [ok][qk][pj][qj][ri][aq][bq][cq][dp][ep][co][fo][gp][gq][iq]
AddB [ar][br]
AddB [cr][eq][fq][ab][bb][bc][bd][ae][bf][cf][db][dc][cd][ed][fd][gd][hd][ic]
AddB [jc][jb][nb][nc][md][le][jf][jh][hg][gh][fg][eh][dh][ci][bj][ck]
AddW [cb]
AddW [cc][ec][dd][be][ce][de][ee][fe][ge][he][ie][id][jd][kd][kc][lc][lb][df]
AddW [dg][cg][bh][eg][ff]
;)
