(;
Game[1]
AddW [op][oq][or][os][oo][pn][qm][rl][pl]
AddB [rn][qp][qr]
AddW [dp][fp][co][dm][em]
AddW [fn][el][ek][dj][cj][ci][ch][bg][bf][dg]
AddB [bh][bi][bj][ck][dk][dl][cm]
AddB [cn][dn][qb][rc][sc][rd][sd][mb][nb][ob][pb][lb]
AddW [qa][ra][sa][kb][jb]
AddW [la][lc][mc][nc][oc][pc][qc][qe][re][se][pf]
;)
