(;
Game[1]
AddB [qn][pm][rm][ol][oj][ni][nh][mg][nf][me][nc][mb][ob][qb][rc][pe][qe][qg]
AddB [qh][ri][rj]
AddW [rk][qk][qj][qi][ph][oi][pg][og][of][oe][od][pd][pc][pb]
AddW [pa][bd][cd][dd][de][df][dg][cg][bg]
AddB [bh][ci][dh][eh][eg][gh][gd][bc]
AddB [cc][ec][fc][hc][dp][dq][eq][fr][gq][hq][hr][hs][ip][io][hn][gm][fn][em]
AddB [el][dl][ck][bk][bo][bn][bp][cn]
AddW [er][fq][hp][gp][fp][ep][eo][do][co]
AddW [dn][dm][cm][bm][bl][an]
;)
