(;
Game[1]
AddW [cc][cd][ce][cf][de][ee][ff][fg][fh][ei][fj][dj][cj][ck][cl]
AddB [bh][ci]
AddB [cg][df][ef][eg][eh][di]
AddW [qr][rq][rp][qo][qn][rn][oo][on][om][np][nq]
AddW [mr][lq][ok][qk][rk][nj]
AddB [pl][pm][rm][qm][sn][so][ro][pp][qp][qq][rr]
AddB [oq][or][nr][ob][pb][oc][pd][qd][rd][sd][sc]
AddW [pc][qc][rc][qb][ma][nc]
AddW [nd][od][oe][pf][qf][rf][sf][bo][co][do][ep][eq][fr][gr][dr][cq]
AddB [bp]
AddB [cp][dp][dq][cr][er]
;)
