(;
Game[1]
AddW [ad][bd][cd][dc][ec]
AddB [ab][bc][cc][dd][ed][fd][gb][hd][rb][qb][pb][ra]
AddB [pd][pe]
AddW [pf][qf][rf][oe][od][oc][ob][br][bq][cq][dq][eq][cp][co][ep]
AddW [eo][fo][fn][gn][gm][gl][gk][gj][hj][ij][fi][ei][ej][ek][dk][ck][bk]
AddB [bs][dr][er][gq][hq][go][ho][io][hm][jn][km][hk][kl][kk][kj][ji][ii][hi]
AddB [gi][fj][fk][fl][el][dl][bl][cm][cn][dn][en][em][do][dp][bp][bo]
;)
