(;
Game[1]
AddB [dd][dc][bc][bb][fb]
AddW [bd][ce][bf][de][ee][fd][gc][gb][ga][rr][or][oq]
AddW [pq][qq][np][no][on][pn][qm][rm]
AddB [rq][rp][ro][op][pp][qp][nq][nr][lr]
AddB [lq][rb][qb][qc][qd][pe][oe][nd][oc][nb][ma]
AddW [mb][mc][md][me][ne][kb]
AddW [pf][of][qe][re][rd][rc][sc][sb][cr][bq][bp][co][do][eo][fp][gp][ho][en]
AddW [dm]
AddB [cp][dp][ep][eq][bo][bn][cl][dl][fo][go][fm][gl]
;)
