(;
Game[1]
AddB [qd][qc][qb][rd][oc][ob][mc][mb][na][ld][jd][kd][id][hc][gc][ec][fe][gf]
AddB [hg][jg][lg][mh][nh][ng][pg][rg]
AddW [hd][he][ie][je][ke][le][lf][mf][nf]
AddW [md][ne][nd][nc][nb][lc][pe][pd][qe][re]
AddB [bs][dr][er][fq][fp][eo][en]
AddB [em][ek][bp][cp][dp][di][ch]
AddW [bq][cq][dq][eq][ep][do][fo][fn][fm][fk]
AddW [fj][cj][bi]
AddB [qq][qr][qp][po][oo][no][np][nq][or]
AddW [pp][qo][rp][rq][rn]
AddW [pn][om][mm][ln][mo][lp][mq][mr][nr]
;)
