(;
Game[1]
AddB [pp][qp][qo][qr][or][oq][mr][mq][ns][lp][lo][km][mm][ol][ql][rm][rn]
AddW [kq][lq][mp][np][op][nq][nr][po][pn][nn][qn][ro][rp][dp][cq][bq][ep][fr]
AddW [gq][co][cn][cm][bl][ck]
AddB [bp][cp][bo][bn][bm][dq][dr][bb][ba][be][de]
AddB [ed][ec][eb][gd][gc][hb][ib][jc][kc][ld][le][mc][nc][pb]
AddW [ac][bc][cc]
AddW [dc][db][da][ea][fb][gb][hc][ic][ie][jd][kd][ke][lf][me][md][nd][od][pd]
AddW [qc][qb]
;)
