(;
Game[1]
AddW [ar][cr][cq][er][es][eq][ep][fp][gp][hp][hq][hr][hs][jp][jo][kq][lq][mq]
AddW [in][hn][fm][dn][cn][dm][dl][dk][dj][ci][bi][ai]
AddB [aj][bj][cj][cl][bm]
AddB [ao][bo][co][do][eo][fo][go][ho][io][bq][ap][cp][dp][dq][ip][iq][ir][is]
AddB [cb][dc][dd][cd][bd][be]
AddW [bf][cg][ce][de][ed][ec][eb][db][rb][pb][nb]
AddW [mc][kc][le][nf][pf][pg][ph][qh][qe][re]
AddB [rh][qg][qf][rf][pe][pd][qc]
AddB [rd][nd][od]
;)
