(;
Game[1]
AddB [bd][be][cf][cg][dh][di][ci][bi]
AddW [bk][cj][dj][ek][ei][eh][dg][df][ce]
AddW [cd][bc][cb][ch]
AddB [pq][qq][rq][or][ps][rp]
AddW [ns][nr][nq][oq][pp][qp][ro]
AddW [qn]
AddB [pd][qd][qc][rb][sb][od][nc][nb][mb][lb]
AddW [jc][kb][ja][la][ma][lc]
AddW [mc][md][nd][oe][pe][qe][rd][rc][sc][rf]
;)
