(;
Game[1]
AddB [ar][br][cr][cq][bq][bp][co][cn][dn][en][fo][fq][gq][hr]
AddW [bs][cs][dr]
AddW [dq][dp][do][cp][bo][ap][fr][rr][qq][qp][po][pn][pm][ql][qk][rj]
AddB [rp]
AddB [qo][rn][qn][qm][rl]
AddW [cc][db][ec][fc][gd][hd][id][je][ke][le][md][mb]
AddW [jc][jb]
AddB [jd][kd][kc][kb][ic][hc][gc][fb][eb]
;)
