(;
Game[1]
AddB [cq][dq][dr][cp][ep][eo][cn][cm][bj][ci][dj][ek][fl][gm][hn][io][jp][jq]
AddB [kq][kr][fr][gr][hr]
AddW [ir][jr][iq][hq][gq][fq][eq][gp][go][fn][em][dl]
AddW [ck][bk][dm][dn][do][dp][rb][qc][pc][oc][nc][md][ld][le][lf][lg][kc]
AddB [kd][ke][kf][kg][lh][mh][ng][ne][nd][lc][mc][nb]
;)
